^D:\TANVIR\DOCUMENTS\DNAPROJ-TANVIRBRANCH\TETRIS\TETRIS\AUDIOMANAGER.CPP|D:\TANVIR\DOCUMENTS\DNAPROJ-TANVIRBRANCH\TETRIS\TETRIS\CHARACTER.CPP|D:\TANVIR\DOCUMENTS\DNAPROJ-TANVIRBRANCH\TETRIS\TETRIS\GAMESCREEN.CPP|D:\TANVIR\DOCUMENTS\DNAPROJ-TANVIRBRANCH\TETRIS\TETRIS\GAMESCREENLEVELONE.CPP|D:\TANVIR\DOCUMENTS\DNAPROJ-TANVIRBRANCH\TETRIS\TETRIS\GAMESCREENMANAGER.CPP|D:\TANVIR\DOCUMENTS\DNAPROJ-TANVIRBRANCH\TETRIS\TETRIS\GAMESCREENTITLE.CPP|D:\TANVIR\DOCUMENTS\DNAPROJ-TANVIRBRANCH\TETRIS\TETRIS\SOURCE.CPP|D:\TANVIR\DOCUMENTS\DNAPROJ-TANVIRBRANCH\TETRIS\TETRIS\TEXTURE2D.CPP
D:\TANVIR\DOCUMENTS\DNAPROJ-TANVIRBRANCH\TETRIS\TETRIS\DEBUG\VC141.PDB
D:\TANVIR\DOCUMENTS\DNAPROJ-TANVIRBRANCH\TETRIS\TETRIS\DEBUG\VC141.IDB
D:\TANVIR\DOCUMENTS\DNAPROJ-TANVIRBRANCH\TETRIS\TETRIS\DEBUG\TEXTURE2D.OBJ
D:\TANVIR\DOCUMENTS\DNAPROJ-TANVIRBRANCH\TETRIS\TETRIS\DEBUG\SOURCE.OBJ
D:\TANVIR\DOCUMENTS\DNAPROJ-TANVIRBRANCH\TETRIS\TETRIS\DEBUG\AUDIOMANAGER.OBJ
D:\TANVIR\DOCUMENTS\DNAPROJ-TANVIRBRANCH\TETRIS\TETRIS\DEBUG\GAMESCREENTITLE.OBJ
D:\TANVIR\DOCUMENTS\DNAPROJ-TANVIRBRANCH\TETRIS\TETRIS\DEBUG\GAMESCREENMANAGER.OBJ
D:\TANVIR\DOCUMENTS\DNAPROJ-TANVIRBRANCH\TETRIS\TETRIS\DEBUG\GAMESCREENLEVELONE.OBJ
D:\TANVIR\DOCUMENTS\DNAPROJ-TANVIRBRANCH\TETRIS\TETRIS\DEBUG\GAMESCREEN.OBJ
D:\TANVIR\DOCUMENTS\DNAPROJ-TANVIRBRANCH\TETRIS\TETRIS\DEBUG\CHARACTER.OBJ
^D:\TANVIR\DOCUMENTS\DNAPROJ-TANVIRBRANCH\TETRIS\TETRIS\CHARACTER.CPP|D:\TANVIR\DOCUMENTS\DNAPROJ-TANVIRBRANCH\TETRIS\TETRIS\GAMESCREENLEVELONE.CPP|D:\TANVIR\DOCUMENTS\DNAPROJ-TANVIRBRANCH\TETRIS\TETRIS\SOURCE.CPP|D:\TANVIR\DOCUMENTS\DNAPROJ-TANVIRBRANCH\TETRIS\TETRIS\TEXTURE2D.CPP|D:\TANVIR\DOCUMENTS\DNAPROJ-TANVIRBRANCH\TETRIS\TETRIS\TILEMAP.CPP
D:\TANVIR\DOCUMENTS\DNAPROJ-TANVIRBRANCH\TETRIS\TETRIS\DEBUG\VC141.PDB
D:\TANVIR\DOCUMENTS\DNAPROJ-TANVIRBRANCH\TETRIS\TETRIS\DEBUG\VC141.IDB
D:\TANVIR\DOCUMENTS\DNAPROJ-TANVIRBRANCH\TETRIS\TETRIS\DEBUG\TILEMAP.OBJ
D:\TANVIR\DOCUMENTS\DNAPROJ-TANVIRBRANCH\TETRIS\TETRIS\DEBUG\TEXTURE2D.OBJ
D:\TANVIR\DOCUMENTS\DNAPROJ-TANVIRBRANCH\TETRIS\TETRIS\DEBUG\SOURCE.OBJ
D:\TANVIR\DOCUMENTS\DNAPROJ-TANVIRBRANCH\TETRIS\TETRIS\DEBUG\GAMESCREENLEVELONE.OBJ
D:\TANVIR\DOCUMENTS\DNAPROJ-TANVIRBRANCH\TETRIS\TETRIS\DEBUG\CHARACTER.OBJ
^D:\TANVIR\DOCUMENTS\DNAPROJ-TANVIRBRANCH\TETRIS\TETRIS\CHARACTER.CPP|D:\TANVIR\DOCUMENTS\DNAPROJ-TANVIRBRANCH\TETRIS\TETRIS\GAMESCREENLEVELONE.CPP|D:\TANVIR\DOCUMENTS\DNAPROJ-TANVIRBRANCH\TETRIS\TETRIS\GAMESCREENMANAGER.CPP|D:\TANVIR\DOCUMENTS\DNAPROJ-TANVIRBRANCH\TETRIS\TETRIS\TILEMAP.CPP
D:\TANVIR\DOCUMENTS\DNAPROJ-TANVIRBRANCH\TETRIS\TETRIS\DEBUG\VC141.PDB
D:\TANVIR\DOCUMENTS\DNAPROJ-TANVIRBRANCH\TETRIS\TETRIS\DEBUG\VC141.IDB
D:\TANVIR\DOCUMENTS\DNAPROJ-TANVIRBRANCH\TETRIS\TETRIS\DEBUG\TILEMAP.OBJ
D:\TANVIR\DOCUMENTS\DNAPROJ-TANVIRBRANCH\TETRIS\TETRIS\DEBUG\GAMESCREENMANAGER.OBJ
D:\TANVIR\DOCUMENTS\DNAPROJ-TANVIRBRANCH\TETRIS\TETRIS\DEBUG\GAMESCREENLEVELONE.OBJ
D:\TANVIR\DOCUMENTS\DNAPROJ-TANVIRBRANCH\TETRIS\TETRIS\DEBUG\CHARACTER.OBJ
^D:\TANVIR\DOCUMENTS\DNAPROJ-TANVIRBRANCH\TETRIS\TETRIS\AUDIOMANAGER.CPP|D:\TANVIR\DOCUMENTS\DNAPROJ-TANVIRBRANCH\TETRIS\TETRIS\CHARACTER.CPP|D:\TANVIR\DOCUMENTS\DNAPROJ-TANVIRBRANCH\TETRIS\TETRIS\GAMESCREENLEVELONE.CPP|D:\TANVIR\DOCUMENTS\DNAPROJ-TANVIRBRANCH\TETRIS\TETRIS\GAMESCREENMANAGER.CPP|D:\TANVIR\DOCUMENTS\DNAPROJ-TANVIRBRANCH\TETRIS\TETRIS\GAMESCREENTITLE.CPP|D:\TANVIR\DOCUMENTS\DNAPROJ-TANVIRBRANCH\TETRIS\TETRIS\SOURCE.CPP|D:\TANVIR\DOCUMENTS\DNAPROJ-TANVIRBRANCH\TETRIS\TETRIS\TEXTURE2D.CPP
D:\TANVIR\DOCUMENTS\DNAPROJ-TANVIRBRANCH\TETRIS\TETRIS\DEBUG\VC141.PDB
D:\TANVIR\DOCUMENTS\DNAPROJ-TANVIRBRANCH\TETRIS\TETRIS\DEBUG\VC141.IDB
D:\TANVIR\DOCUMENTS\DNAPROJ-TANVIRBRANCH\TETRIS\TETRIS\DEBUG\TEXTURE2D.OBJ
D:\TANVIR\DOCUMENTS\DNAPROJ-TANVIRBRANCH\TETRIS\TETRIS\DEBUG\SOURCE.OBJ
D:\TANVIR\DOCUMENTS\DNAPROJ-TANVIRBRANCH\TETRIS\TETRIS\DEBUG\GAMESCREENTITLE.OBJ
D:\TANVIR\DOCUMENTS\DNAPROJ-TANVIRBRANCH\TETRIS\TETRIS\DEBUG\GAMESCREENMANAGER.OBJ
D:\TANVIR\DOCUMENTS\DNAPROJ-TANVIRBRANCH\TETRIS\TETRIS\DEBUG\GAMESCREENLEVELONE.OBJ
D:\TANVIR\DOCUMENTS\DNAPROJ-TANVIRBRANCH\TETRIS\TETRIS\DEBUG\CHARACTER.OBJ
D:\TANVIR\DOCUMENTS\DNAPROJ-TANVIRBRANCH\TETRIS\TETRIS\DEBUG\AUDIOMANAGER.OBJ
^D:\TANVIR\DOCUMENTS\DNAPROJ-TANVIRBRANCH\TETRIS\TETRIS\AUDIOMANAGER.CPP|D:\TANVIR\DOCUMENTS\DNAPROJ-TANVIRBRANCH\TETRIS\TETRIS\CHARACTER.CPP|D:\TANVIR\DOCUMENTS\DNAPROJ-TANVIRBRANCH\TETRIS\TETRIS\COLLISIONS.CPP|D:\TANVIR\DOCUMENTS\DNAPROJ-TANVIRBRANCH\TETRIS\TETRIS\GAMESCREENLEVELONE.CPP|D:\TANVIR\DOCUMENTS\DNAPROJ-TANVIRBRANCH\TETRIS\TETRIS\GAMESCREENMANAGER.CPP|D:\TANVIR\DOCUMENTS\DNAPROJ-TANVIRBRANCH\TETRIS\TETRIS\GAMESCREENTITLE.CPP|D:\TANVIR\DOCUMENTS\DNAPROJ-TANVIRBRANCH\TETRIS\TETRIS\SOURCE.CPP|D:\TANVIR\DOCUMENTS\DNAPROJ-TANVIRBRANCH\TETRIS\TETRIS\TEXTURE2D.CPP
D:\TANVIR\DOCUMENTS\DNAPROJ-TANVIRBRANCH\TETRIS\TETRIS\DEBUG\VC141.PDB
D:\TANVIR\DOCUMENTS\DNAPROJ-TANVIRBRANCH\TETRIS\TETRIS\DEBUG\VC141.IDB
D:\TANVIR\DOCUMENTS\DNAPROJ-TANVIRBRANCH\TETRIS\TETRIS\DEBUG\TEXTURE2D.OBJ
D:\TANVIR\DOCUMENTS\DNAPROJ-TANVIRBRANCH\TETRIS\TETRIS\DEBUG\SOURCE.OBJ
D:\TANVIR\DOCUMENTS\DNAPROJ-TANVIRBRANCH\TETRIS\TETRIS\DEBUG\AUDIOMANAGER.OBJ
D:\TANVIR\DOCUMENTS\DNAPROJ-TANVIRBRANCH\TETRIS\TETRIS\DEBUG\GAMESCREENTITLE.OBJ
D:\TANVIR\DOCUMENTS\DNAPROJ-TANVIRBRANCH\TETRIS\TETRIS\DEBUG\GAMESCREENMANAGER.OBJ
D:\TANVIR\DOCUMENTS\DNAPROJ-TANVIRBRANCH\TETRIS\TETRIS\DEBUG\GAMESCREENLEVELONE.OBJ
D:\TANVIR\DOCUMENTS\DNAPROJ-TANVIRBRANCH\TETRIS\TETRIS\DEBUG\COLLISIONS.OBJ
D:\TANVIR\DOCUMENTS\DNAPROJ-TANVIRBRANCH\TETRIS\TETRIS\DEBUG\CHARACTER.OBJ
^D:\TANVIR\DOCUMENTS\DNAPROJ-TANVIRBRANCH\TETRIS\TETRIS\CHARACTER.CPP|D:\TANVIR\DOCUMENTS\DNAPROJ-TANVIRBRANCH\TETRIS\TETRIS\GAMESCREENLEVELONE.CPP|D:\TANVIR\DOCUMENTS\DNAPROJ-TANVIRBRANCH\TETRIS\TETRIS\GAMESCREENMANAGER.CPP
D:\TANVIR\DOCUMENTS\DNAPROJ-TANVIRBRANCH\TETRIS\TETRIS\DEBUG\VC141.PDB
D:\TANVIR\DOCUMENTS\DNAPROJ-TANVIRBRANCH\TETRIS\TETRIS\DEBUG\VC141.IDB
D:\TANVIR\DOCUMENTS\DNAPROJ-TANVIRBRANCH\TETRIS\TETRIS\DEBUG\GAMESCREENMANAGER.OBJ
D:\TANVIR\DOCUMENTS\DNAPROJ-TANVIRBRANCH\TETRIS\TETRIS\DEBUG\GAMESCREENLEVELONE.OBJ
D:\TANVIR\DOCUMENTS\DNAPROJ-TANVIRBRANCH\TETRIS\TETRIS\DEBUG\CHARACTER.OBJ
^D:\TANVIR\DOCUMENTS\DNAPROJ-TANVIRBRANCH\TETRIS\TETRIS\CHARACTER.CPP|D:\TANVIR\DOCUMENTS\DNAPROJ-TANVIRBRANCH\TETRIS\TETRIS\CHARACTERGRID.CPP|D:\TANVIR\DOCUMENTS\DNAPROJ-TANVIRBRANCH\TETRIS\TETRIS\GAMESCREENLEVELONE.CPP|D:\TANVIR\DOCUMENTS\DNAPROJ-TANVIRBRANCH\TETRIS\TETRIS\GAMESCREENMANAGER.CPP
D:\TANVIR\DOCUMENTS\DNAPROJ-TANVIRBRANCH\TETRIS\TETRIS\DEBUG\VC141.PDB
D:\TANVIR\DOCUMENTS\DNAPROJ-TANVIRBRANCH\TETRIS\TETRIS\DEBUG\VC141.IDB
D:\TANVIR\DOCUMENTS\DNAPROJ-TANVIRBRANCH\TETRIS\TETRIS\DEBUG\GAMESCREENMANAGER.OBJ
D:\TANVIR\DOCUMENTS\DNAPROJ-TANVIRBRANCH\TETRIS\TETRIS\DEBUG\GAMESCREENLEVELONE.OBJ
D:\TANVIR\DOCUMENTS\DNAPROJ-TANVIRBRANCH\TETRIS\TETRIS\DEBUG\CHARACTERGRID.OBJ
D:\TANVIR\DOCUMENTS\DNAPROJ-TANVIRBRANCH\TETRIS\TETRIS\DEBUG\CHARACTER.OBJ
^D:\TANVIR\DOCUMENTS\DNAPROJ-TANVIRBRANCH\TETRIS\TETRIS\CHARACTER.CPP|D:\TANVIR\DOCUMENTS\DNAPROJ-TANVIRBRANCH\TETRIS\TETRIS\CHARACTERGRID.CPP
D:\TANVIR\DOCUMENTS\DNAPROJ-TANVIRBRANCH\TETRIS\TETRIS\DEBUG\VC141.PDB
D:\TANVIR\DOCUMENTS\DNAPROJ-TANVIRBRANCH\TETRIS\TETRIS\DEBUG\VC141.IDB
D:\TANVIR\DOCUMENTS\DNAPROJ-TANVIRBRANCH\TETRIS\TETRIS\DEBUG\CHARACTER.OBJ
^D:\TANVIR\DOCUMENTS\DNAPROJ-TANVIRBRANCH\TETRIS\TETRIS\CHARACTER.CPP|D:\TANVIR\DOCUMENTS\DNAPROJ-TANVIRBRANCH\TETRIS\TETRIS\CHARACTERGRID.CPP|D:\TANVIR\DOCUMENTS\DNAPROJ-TANVIRBRANCH\TETRIS\TETRIS\CHARACTERTETROMINO.CPP|D:\TANVIR\DOCUMENTS\DNAPROJ-TANVIRBRANCH\TETRIS\TETRIS\GAMESCREENLEVELONE.CPP|D:\TANVIR\DOCUMENTS\DNAPROJ-TANVIRBRANCH\TETRIS\TETRIS\GAMESCREENMANAGER.CPP|D:\TANVIR\DOCUMENTS\DNAPROJ-TANVIRBRANCH\TETRIS\TETRIS\SOURCE.CPP|D:\TANVIR\DOCUMENTS\DNAPROJ-TANVIRBRANCH\TETRIS\TETRIS\TEXTURE2D.CPP|D:\TANVIR\DOCUMENTS\DNAPROJ-TANVIRBRANCH\TETRIS\TETRIS\TILEMAP.CPP
D:\TANVIR\DOCUMENTS\DNAPROJ-TANVIRBRANCH\TETRIS\TETRIS\DEBUG\VC141.PDB
D:\TANVIR\DOCUMENTS\DNAPROJ-TANVIRBRANCH\TETRIS\TETRIS\DEBUG\VC141.IDB
D:\TANVIR\DOCUMENTS\DNAPROJ-TANVIRBRANCH\TETRIS\TETRIS\DEBUG\TILEMAP.OBJ
D:\TANVIR\DOCUMENTS\DNAPROJ-TANVIRBRANCH\TETRIS\TETRIS\DEBUG\TEXTURE2D.OBJ
D:\TANVIR\DOCUMENTS\DNAPROJ-TANVIRBRANCH\TETRIS\TETRIS\DEBUG\SOURCE.OBJ
D:\TANVIR\DOCUMENTS\DNAPROJ-TANVIRBRANCH\TETRIS\TETRIS\DEBUG\GAMESCREENMANAGER.OBJ
D:\TANVIR\DOCUMENTS\DNAPROJ-TANVIRBRANCH\TETRIS\TETRIS\DEBUG\GAMESCREENLEVELONE.OBJ
D:\TANVIR\DOCUMENTS\DNAPROJ-TANVIRBRANCH\TETRIS\TETRIS\DEBUG\CHARACTERTETROMINO.OBJ
D:\TANVIR\DOCUMENTS\DNAPROJ-TANVIRBRANCH\TETRIS\TETRIS\DEBUG\CHARACTERGRID.OBJ
D:\TANVIR\DOCUMENTS\DNAPROJ-TANVIRBRANCH\TETRIS\TETRIS\DEBUG\CHARACTER.OBJ
^D:\TANVIR\DOCUMENTS\DNAPROJ-TANVIRBRANCH\TETRIS\TETRIS\TILEMAP.CPP
D:\TANVIR\DOCUMENTS\DNAPROJ-TANVIRBRANCH\TETRIS\TETRIS\DEBUG\VC141.PDB
^D:\TANVIR\DOCUMENTS\DNAPROJ-TANVIRBRANCH\TETRIS\TETRIS\AUDIOMANAGER.CPP|D:\TANVIR\DOCUMENTS\DNAPROJ-TANVIRBRANCH\TETRIS\TETRIS\CHARACTER.CPP|D:\TANVIR\DOCUMENTS\DNAPROJ-TANVIRBRANCH\TETRIS\TETRIS\CHARACTERGRID.CPP|D:\TANVIR\DOCUMENTS\DNAPROJ-TANVIRBRANCH\TETRIS\TETRIS\CHARACTERTETROMINO.CPP|D:\TANVIR\DOCUMENTS\DNAPROJ-TANVIRBRANCH\TETRIS\TETRIS\COLLISIONS.CPP|D:\TANVIR\DOCUMENTS\DNAPROJ-TANVIRBRANCH\TETRIS\TETRIS\GAMESCREEN.CPP|D:\TANVIR\DOCUMENTS\DNAPROJ-TANVIRBRANCH\TETRIS\TETRIS\GAMESCREENGAMEOVER.CPP|D:\TANVIR\DOCUMENTS\DNAPROJ-TANVIRBRANCH\TETRIS\TETRIS\GAMESCREENLEVELONE.CPP|D:\TANVIR\DOCUMENTS\DNAPROJ-TANVIRBRANCH\TETRIS\TETRIS\GAMESCREENMANAGER.CPP|D:\TANVIR\DOCUMENTS\DNAPROJ-TANVIRBRANCH\TETRIS\TETRIS\GAMESCREENTITLE.CPP|D:\TANVIR\DOCUMENTS\DNAPROJ-TANVIRBRANCH\TETRIS\TETRIS\SOURCE.CPP|D:\TANVIR\DOCUMENTS\DNAPROJ-TANVIRBRANCH\TETRIS\TETRIS\TEXTURE2D.CPP
D:\TANVIR\DOCUMENTS\DNAPROJ-TANVIRBRANCH\TETRIS\TETRIS\DEBUG\VC141.PDB
D:\TANVIR\DOCUMENTS\DNAPROJ-TANVIRBRANCH\TETRIS\TETRIS\DEBUG\VC141.IDB
D:\TANVIR\DOCUMENTS\DNAPROJ-TANVIRBRANCH\TETRIS\TETRIS\DEBUG\TEXTURE2D.OBJ
D:\TANVIR\DOCUMENTS\DNAPROJ-TANVIRBRANCH\TETRIS\TETRIS\DEBUG\SOURCE.OBJ
D:\TANVIR\DOCUMENTS\DNAPROJ-TANVIRBRANCH\TETRIS\TETRIS\DEBUG\AUDIOMANAGER.OBJ
D:\TANVIR\DOCUMENTS\DNAPROJ-TANVIRBRANCH\TETRIS\TETRIS\DEBUG\GAMESCREENTITLE.OBJ
D:\TANVIR\DOCUMENTS\DNAPROJ-TANVIRBRANCH\TETRIS\TETRIS\DEBUG\GAMESCREENLEVELONE.OBJ
D:\TANVIR\DOCUMENTS\DNAPROJ-TANVIRBRANCH\TETRIS\TETRIS\DEBUG\GAMESCREEN.OBJ
D:\TANVIR\DOCUMENTS\DNAPROJ-TANVIRBRANCH\TETRIS\TETRIS\DEBUG\COLLISIONS.OBJ
D:\TANVIR\DOCUMENTS\DNAPROJ-TANVIRBRANCH\TETRIS\TETRIS\DEBUG\CHARACTERTETROMINO.OBJ
D:\TANVIR\DOCUMENTS\DNAPROJ-TANVIRBRANCH\TETRIS\TETRIS\DEBUG\CHARACTERGRID.OBJ
D:\TANVIR\DOCUMENTS\DNAPROJ-TANVIRBRANCH\TETRIS\TETRIS\DEBUG\CHARACTER.OBJ
^D:\TANVIR\DOCUMENTS\DNAPROJ-TANVIRBRANCH\TETRIS\TETRIS\COLLISIONS.CPP
D:\TANVIR\DOCUMENTS\DNAPROJ-TANVIRBRANCH\TETRIS\TETRIS\DEBUG\COLLISIONS.OBJ
^D:\TANVIR\DOCUMENTS\DNAPROJ-TANVIRBRANCH\TETRIS\TETRIS\GAMESCREEN.CPP
D:\TANVIR\DOCUMENTS\DNAPROJ-TANVIRBRANCH\TETRIS\TETRIS\DEBUG\GAMESCREEN.OBJ
^D:\TANVIR\DOCUMENTS\DNAPROJ-TANVIRBRANCH\TETRIS\TETRIS\GAMESCREENTITLE.CPP
D:\TANVIR\DOCUMENTS\DNAPROJ-TANVIRBRANCH\TETRIS\TETRIS\DEBUG\GAMESCREENTITLE.OBJ
^D:\TANVIR\DOCUMENTS\DNAPROJ-TANVIRBRANCH\TETRIS\TETRIS\AUDIOMANAGER.CPP
D:\TANVIR\DOCUMENTS\DNAPROJ-TANVIRBRANCH\TETRIS\TETRIS\DEBUG\AUDIOMANAGER.OBJ
^D:\TANVIR\DOCUMENTS\DNAPROJ-TANVIRBRANCH\TETRIS\TETRIS\SOURCE.CPP
D:\TANVIR\DOCUMENTS\DNAPROJ-TANVIRBRANCH\TETRIS\TETRIS\DEBUG\SOURCE.OBJ
^D:\TANVIR\DOCUMENTS\DNAPROJ-TANVIRBRANCH\TETRIS\TETRIS\TEXTURE2D.CPP
D:\TANVIR\DOCUMENTS\DNAPROJ-TANVIRBRANCH\TETRIS\TETRIS\DEBUG\TEXTURE2D.OBJ
^D:\TANVIR\DOCUMENTS\DNAPROJ-TANVIRBRANCH\TETRIS\TETRIS\GAMESCREENGAMEOVER.CPP|D:\TANVIR\DOCUMENTS\DNAPROJ-TANVIRBRANCH\TETRIS\TETRIS\GAMESCREENMANAGER.CPP
D:\TANVIR\DOCUMENTS\DNAPROJ-TANVIRBRANCH\TETRIS\TETRIS\DEBUG\VC141.PDB
D:\TANVIR\DOCUMENTS\DNAPROJ-TANVIRBRANCH\TETRIS\TETRIS\DEBUG\VC141.IDB
D:\TANVIR\DOCUMENTS\DNAPROJ-TANVIRBRANCH\TETRIS\TETRIS\DEBUG\GAMESCREENMANAGER.OBJ
^D:\TANVIR\DOCUMENTS\DNAPROJ-TANVIRBRANCH\TETRIS\TETRIS\GAMESCREENGAMEOVER.CPP
D:\TANVIR\DOCUMENTS\DNAPROJ-TANVIRBRANCH\TETRIS\TETRIS\DEBUG\VC141.PDB
D:\TANVIR\DOCUMENTS\DNAPROJ-TANVIRBRANCH\TETRIS\TETRIS\DEBUG\VC141.IDB
D:\TANVIR\DOCUMENTS\DNAPROJ-TANVIRBRANCH\TETRIS\TETRIS\DEBUG\GAMESCREENGAMEOVER.OBJ
^D:\TANVIR\DOCUMENTS\DNAPROJ-TANVIRBRANCH\TETRIS\TETRIS\GAMESCREENLEVELONE.CPP|D:\TANVIR\DOCUMENTS\DNAPROJ-TANVIRBRANCH\TETRIS\TETRIS\GAMESCREENMANAGER.CPP
D:\TANVIR\DOCUMENTS\DNAPROJ-TANVIRBRANCH\TETRIS\TETRIS\DEBUG\VC141.PDB
D:\TANVIR\DOCUMENTS\DNAPROJ-TANVIRBRANCH\TETRIS\TETRIS\DEBUG\VC141.IDB
D:\TANVIR\DOCUMENTS\DNAPROJ-TANVIRBRANCH\TETRIS\TETRIS\DEBUG\GAMESCREENMANAGER.OBJ
D:\TANVIR\DOCUMENTS\DNAPROJ-TANVIRBRANCH\TETRIS\TETRIS\DEBUG\GAMESCREENLEVELONE.OBJ
^D:\TANVIR\DOCUMENTS\DNAPROJ-TANVIRBRANCH\TETRIS\TETRIS\CHARACTERTETROMINO.CPP|D:\TANVIR\DOCUMENTS\DNAPROJ-TANVIRBRANCH\TETRIS\TETRIS\GAMESCREENLEVELONE.CPP
D:\TANVIR\DOCUMENTS\DNAPROJ-TANVIRBRANCH\TETRIS\TETRIS\DEBUG\VC141.PDB
D:\TANVIR\DOCUMENTS\DNAPROJ-TANVIRBRANCH\TETRIS\TETRIS\DEBUG\VC141.IDB
D:\TANVIR\DOCUMENTS\DNAPROJ-TANVIRBRANCH\TETRIS\TETRIS\DEBUG\GAMESCREENLEVELONE.OBJ
D:\TANVIR\DOCUMENTS\DNAPROJ-TANVIRBRANCH\TETRIS\TETRIS\DEBUG\CHARACTERTETROMINO.OBJ
^D:\TANVIR\DOCUMENTS\DNAPROJ-TANVIRBRANCH\TETRIS\TETRIS\CHARACTER.CPP|D:\TANVIR\DOCUMENTS\DNAPROJ-TANVIRBRANCH\TETRIS\TETRIS\CHARACTERGRID.CPP|D:\TANVIR\DOCUMENTS\DNAPROJ-TANVIRBRANCH\TETRIS\TETRIS\CHARACTERTETROMINO.CPP|D:\TANVIR\DOCUMENTS\DNAPROJ-TANVIRBRANCH\TETRIS\TETRIS\GAMESCREENLEVELONE.CPP|D:\TANVIR\DOCUMENTS\DNAPROJ-TANVIRBRANCH\TETRIS\TETRIS\GAMESCREENMANAGER.CPP
D:\TANVIR\DOCUMENTS\DNAPROJ-TANVIRBRANCH\TETRIS\TETRIS\DEBUG\VC141.PDB
D:\TANVIR\DOCUMENTS\DNAPROJ-TANVIRBRANCH\TETRIS\TETRIS\DEBUG\VC141.IDB
D:\TANVIR\DOCUMENTS\DNAPROJ-TANVIRBRANCH\TETRIS\TETRIS\DEBUG\GAMESCREENMANAGER.OBJ
D:\TANVIR\DOCUMENTS\DNAPROJ-TANVIRBRANCH\TETRIS\TETRIS\DEBUG\GAMESCREENLEVELONE.OBJ
D:\TANVIR\DOCUMENTS\DNAPROJ-TANVIRBRANCH\TETRIS\TETRIS\DEBUG\CHARACTERTETROMINO.OBJ
D:\TANVIR\DOCUMENTS\DNAPROJ-TANVIRBRANCH\TETRIS\TETRIS\DEBUG\CHARACTERGRID.OBJ
D:\TANVIR\DOCUMENTS\DNAPROJ-TANVIRBRANCH\TETRIS\TETRIS\DEBUG\CHARACTER.OBJ
^D:\TANVIR\DOCUMENTS\DNAPROJ-TANVIRBRANCH\TETRIS\TETRIS\CHARACTER.CPP|D:\TANVIR\DOCUMENTS\DNAPROJ-TANVIRBRANCH\TETRIS\TETRIS\CHARACTERTETROMINO.CPP|D:\TANVIR\DOCUMENTS\DNAPROJ-TANVIRBRANCH\TETRIS\TETRIS\GAMESCREENLEVELONE.CPP|D:\TANVIR\DOCUMENTS\DNAPROJ-TANVIRBRANCH\TETRIS\TETRIS\GAMESCREENMANAGER.CPP
D:\TANVIR\DOCUMENTS\DNAPROJ-TANVIRBRANCH\TETRIS\TETRIS\DEBUG\VC141.PDB
D:\TANVIR\DOCUMENTS\DNAPROJ-TANVIRBRANCH\TETRIS\TETRIS\DEBUG\VC141.IDB
D:\TANVIR\DOCUMENTS\DNAPROJ-TANVIRBRANCH\TETRIS\TETRIS\DEBUG\GAMESCREENMANAGER.OBJ
D:\TANVIR\DOCUMENTS\DNAPROJ-TANVIRBRANCH\TETRIS\TETRIS\DEBUG\GAMESCREENLEVELONE.OBJ
D:\TANVIR\DOCUMENTS\DNAPROJ-TANVIRBRANCH\TETRIS\TETRIS\DEBUG\CHARACTER.OBJ
^D:\TANVIR\DOCUMENTS\DNAPROJ-TANVIRBRANCH\TETRIS\TETRIS\CHARACTER.CPP
D:\TANVIR\DOCUMENTS\DNAPROJ-TANVIRBRANCH\TETRIS\TETRIS\DEBUG\CHARACTER.OBJ
^D:\TANVIR\DOCUMENTS\DNAPROJ-TANVIRBRANCH\TETRIS\TETRIS\CHARACTERTETROMINO.CPP|D:\TANVIR\DOCUMENTS\DNAPROJ-TANVIRBRANCH\TETRIS\TETRIS\CHARACTERTETROMINOOUTLINE.CPP
D:\TANVIR\DOCUMENTS\DNAPROJ-TANVIRBRANCH\TETRIS\TETRIS\DEBUG\VC141.PDB
D:\TANVIR\DOCUMENTS\DNAPROJ-TANVIRBRANCH\TETRIS\TETRIS\DEBUG\VC141.IDB
D:\TANVIR\DOCUMENTS\DNAPROJ-TANVIRBRANCH\TETRIS\TETRIS\DEBUG\CHARACTERTETROMINOOUTLINE.OBJ
D:\TANVIR\DOCUMENTS\DNAPROJ-TANVIRBRANCH\TETRIS\TETRIS\DEBUG\CHARACTERTETROMINO.OBJ
^D:\TANVIR\DOCUMENTS\DNAPROJ-TANVIRBRANCH\TETRIS\TETRIS\CHARACTERTETROMINOOUTLINE.CPP
D:\TANVIR\DOCUMENTS\DNAPROJ-TANVIRBRANCH\TETRIS\TETRIS\DEBUG\VC141.PDB
D:\TANVIR\DOCUMENTS\DNAPROJ-TANVIRBRANCH\TETRIS\TETRIS\DEBUG\VC141.IDB
D:\TANVIR\DOCUMENTS\DNAPROJ-TANVIRBRANCH\TETRIS\TETRIS\DEBUG\CHARACTERTETROMINOOUTLINE.OBJ
^D:\TANVIR\DOCUMENTS\DNAPROJ-TANVIRBRANCH\TETRIS\TETRIS\CHARACTERTETROMINO.CPP|D:\TANVIR\DOCUMENTS\DNAPROJ-TANVIRBRANCH\TETRIS\TETRIS\GAMESCREENLEVELONE.CPP|D:\TANVIR\DOCUMENTS\DNAPROJ-TANVIRBRANCH\TETRIS\TETRIS\GAMESCREENMANAGER.CPP
D:\TANVIR\DOCUMENTS\DNAPROJ-TANVIRBRANCH\TETRIS\TETRIS\DEBUG\VC141.PDB
D:\TANVIR\DOCUMENTS\DNAPROJ-TANVIRBRANCH\TETRIS\TETRIS\DEBUG\VC141.IDB
D:\TANVIR\DOCUMENTS\DNAPROJ-TANVIRBRANCH\TETRIS\TETRIS\DEBUG\GAMESCREENMANAGER.OBJ
D:\TANVIR\DOCUMENTS\DNAPROJ-TANVIRBRANCH\TETRIS\TETRIS\DEBUG\GAMESCREENLEVELONE.OBJ
D:\TANVIR\DOCUMENTS\DNAPROJ-TANVIRBRANCH\TETRIS\TETRIS\DEBUG\CHARACTERTETROMINO.OBJ
^D:\TANVIR\DOCUMENTS\DNAPROJ-TANVIRBRANCH\TETRIS\TETRIS\CHARACTERGRID.CPP|D:\TANVIR\DOCUMENTS\DNAPROJ-TANVIRBRANCH\TETRIS\TETRIS\CHARACTERTETROMINO.CPP|D:\TANVIR\DOCUMENTS\DNAPROJ-TANVIRBRANCH\TETRIS\TETRIS\GAMESCREENLEVELONE.CPP|D:\TANVIR\DOCUMENTS\DNAPROJ-TANVIRBRANCH\TETRIS\TETRIS\GAMESCREENMANAGER.CPP
D:\TANVIR\DOCUMENTS\DNAPROJ-TANVIRBRANCH\TETRIS\TETRIS\DEBUG\VC141.PDB
D:\TANVIR\DOCUMENTS\DNAPROJ-TANVIRBRANCH\TETRIS\TETRIS\DEBUG\VC141.IDB
D:\TANVIR\DOCUMENTS\DNAPROJ-TANVIRBRANCH\TETRIS\TETRIS\DEBUG\GAMESCREENMANAGER.OBJ
D:\TANVIR\DOCUMENTS\DNAPROJ-TANVIRBRANCH\TETRIS\TETRIS\DEBUG\GAMESCREENLEVELONE.OBJ
D:\TANVIR\DOCUMENTS\DNAPROJ-TANVIRBRANCH\TETRIS\TETRIS\DEBUG\CHARACTERTETROMINO.OBJ
D:\TANVIR\DOCUMENTS\DNAPROJ-TANVIRBRANCH\TETRIS\TETRIS\DEBUG\CHARACTERGRID.OBJ
^D:\TANVIR\DOCUMENTS\DNAPROJ-TANVIRBRANCH\TETRIS\TETRIS\GAMESCREENMANAGER.CPP
D:\TANVIR\DOCUMENTS\DNAPROJ-TANVIRBRANCH\TETRIS\TETRIS\DEBUG\VC141.PDB
^D:\TANVIR\DOCUMENTS\DNAPROJ-TANVIRBRANCH\TETRIS\TETRIS\CHARACTERTETROMINO.CPP
D:\TANVIR\DOCUMENTS\DNAPROJ-TANVIRBRANCH\TETRIS\TETRIS\DEBUG\VC141.PDB
D:\TANVIR\DOCUMENTS\DNAPROJ-TANVIRBRANCH\TETRIS\TETRIS\DEBUG\VC141.IDB
D:\TANVIR\DOCUMENTS\DNAPROJ-TANVIRBRANCH\TETRIS\TETRIS\DEBUG\CHARACTERTETROMINO.OBJ
^D:\TANVIR\DOCUMENTS\DNAPROJ-TANVIRBRANCH\TETRIS\TETRIS\GAMESCREENLEVELONE.CPP
D:\TANVIR\DOCUMENTS\DNAPROJ-TANVIRBRANCH\TETRIS\TETRIS\DEBUG\VC141.PDB
D:\TANVIR\DOCUMENTS\DNAPROJ-TANVIRBRANCH\TETRIS\TETRIS\DEBUG\VC141.IDB
D:\TANVIR\DOCUMENTS\DNAPROJ-TANVIRBRANCH\TETRIS\TETRIS\DEBUG\GAMESCREENLEVELONE.OBJ
^D:\TANVIR\DOCUMENTS\DNAPROJ-TANVIRBRANCH\TETRIS\TETRIS\CHARACTERGRID.CPP
D:\TANVIR\DOCUMENTS\DNAPROJ-TANVIRBRANCH\TETRIS\TETRIS\DEBUG\VC141.PDB
D:\TANVIR\DOCUMENTS\DNAPROJ-TANVIRBRANCH\TETRIS\TETRIS\DEBUG\VC141.IDB
D:\TANVIR\DOCUMENTS\DNAPROJ-TANVIRBRANCH\TETRIS\TETRIS\DEBUG\CHARACTERGRID.OBJ
