^D:\TANVIR\DOCUMENTS\GROUP11TETRIS\TETRIS\TETRIS\DEBUG\SOURCE.OBJ
/OUT:"D:\TANVIR\DOCUMENTS\GROUP11TETRIS\TETRIS\DEBUG\TETRIS.EXE" /INCREMENTAL /NOLOGO /LIBPATH:SDL2.LIB /LIBPATH:SDL_MAIN.LIB /LIBPATH:SDL2_IMAGE.LIB SDL2.LIB SDL2MAIN.LIB SDL2_IMAGE.LIB SDL2_TTF.LIB SDL2_MIXER.LIB KERNEL32.LIB USER32.LIB GDI32.LIB WINSPOOL.LIB COMDLG32.LIB ADVAPI32.LIB SHELL32.LIB OLE32.LIB OLEAUT32.LIB UUID.LIB ODBC32.LIB ODBCCP32.LIB /MANIFEST /MANIFESTUAC:"level='asInvoker' uiAccess='false'" /manifest:embed /DEBUG:FASTLINK /PDB:"D:\TANVIR\DOCUMENTS\GROUP11TETRIS\TETRIS\DEBUG\TETRIS.PDB" /SUBSYSTEM:CONSOLE /TLBID:1 /DYNAMICBASE /NXCOMPAT /IMPLIB:"D:\TANVIR\DOCUMENTS\GROUP11TETRIS\TETRIS\DEBUG\TETRIS.LIB" /MACHINE:X86 DEBUG\SOURCE.OBJ
^D:\TANVIR\DOCUMENTS\GROUP11TETRIS\TETRIS\TETRIS\DEBUG\GAMESCREEN.OBJ|D:\TANVIR\DOCUMENTS\GROUP11TETRIS\TETRIS\TETRIS\DEBUG\GAMESCREENMANAGER.OBJ|D:\TANVIR\DOCUMENTS\GROUP11TETRIS\TETRIS\TETRIS\DEBUG\GAMESCREENTITLE.OBJ|D:\TANVIR\DOCUMENTS\GROUP11TETRIS\TETRIS\TETRIS\DEBUG\SOURCE.OBJ|D:\TANVIR\DOCUMENTS\GROUP11TETRIS\TETRIS\TETRIS\DEBUG\TEXTURE2D.OBJ
/OUT:"D:\TANVIR\DOCUMENTS\GROUP11TETRIS\TETRIS\DEBUG\TETRIS.EXE" /INCREMENTAL /NOLOGO /LIBPATH:SDL2.LIB /LIBPATH:SDL_MAIN.LIB /LIBPATH:SDL2_IMAGE.LIB SDL2.LIB SDL2MAIN.LIB SDL2_IMAGE.LIB SDL2_TTF.LIB SDL2_MIXER.LIB KERNEL32.LIB USER32.LIB GDI32.LIB WINSPOOL.LIB COMDLG32.LIB ADVAPI32.LIB SHELL32.LIB OLE32.LIB OLEAUT32.LIB UUID.LIB ODBC32.LIB ODBCCP32.LIB /MANIFEST /MANIFESTUAC:"level='asInvoker' uiAccess='false'" /manifest:embed /DEBUG:FASTLINK /PDB:"D:\TANVIR\DOCUMENTS\GROUP11TETRIS\TETRIS\DEBUG\TETRIS.PDB" /SUBSYSTEM:CONSOLE /TLBID:1 /DYNAMICBASE /NXCOMPAT /IMPLIB:"D:\TANVIR\DOCUMENTS\GROUP11TETRIS\TETRIS\DEBUG\TETRIS.LIB" /MACHINE:X86 DEBUG\GAMESCREEN.OBJDEBUG\GAMESCREENMANAGER.OBJDEBUG\GAMESCREENTITLE.OBJDEBUG\SOURCE.OBJDEBUG\TEXTURE2D.OBJ
^D:\TANVIR\DOCUMENTS\UNIVERSITY\DNA_PROJECT\TETRIS\TETRIS\DEBUG\CHARACTER.OBJ|D:\TANVIR\DOCUMENTS\UNIVERSITY\DNA_PROJECT\TETRIS\TETRIS\DEBUG\GAMESCREEN.OBJ|D:\TANVIR\DOCUMENTS\UNIVERSITY\DNA_PROJECT\TETRIS\TETRIS\DEBUG\GAMESCREENLEVELONE.OBJ|D:\TANVIR\DOCUMENTS\UNIVERSITY\DNA_PROJECT\TETRIS\TETRIS\DEBUG\GAMESCREENMANAGER.OBJ|D:\TANVIR\DOCUMENTS\UNIVERSITY\DNA_PROJECT\TETRIS\TETRIS\DEBUG\GAMESCREENTITLE.OBJ|D:\TANVIR\DOCUMENTS\UNIVERSITY\DNA_PROJECT\TETRIS\TETRIS\DEBUG\SOURCE.OBJ|D:\TANVIR\DOCUMENTS\UNIVERSITY\DNA_PROJECT\TETRIS\TETRIS\DEBUG\TEXTURE2D.OBJ
/OUT:"D:\TANVIR\DOCUMENTS\UNIVERSITY\DNA_PROJECT\TETRIS\DEBUG\TETRIS.EXE" /INCREMENTAL /NOLOGO /LIBPATH:SDL2.LIB /LIBPATH:SDL_MAIN.LIB /LIBPATH:SDL2_IMAGE.LIB SDL2.LIB SDL2MAIN.LIB SDL2_IMAGE.LIB SDL2_TTF.LIB SDL2_MIXER.LIB KERNEL32.LIB USER32.LIB GDI32.LIB WINSPOOL.LIB COMDLG32.LIB ADVAPI32.LIB SHELL32.LIB OLE32.LIB OLEAUT32.LIB UUID.LIB ODBC32.LIB ODBCCP32.LIB /MANIFEST /MANIFESTUAC:"level='asInvoker' uiAccess='false'" /manifest:embed /DEBUG:FASTLINK /PDB:"D:\TANVIR\DOCUMENTS\UNIVERSITY\DNA_PROJECT\TETRIS\DEBUG\TETRIS.PDB" /SUBSYSTEM:CONSOLE /TLBID:1 /DYNAMICBASE /NXCOMPAT /IMPLIB:"D:\TANVIR\DOCUMENTS\UNIVERSITY\DNA_PROJECT\TETRIS\DEBUG\TETRIS.LIB" /MACHINE:X86 DEBUG\CHARACTER.OBJDEBUG\GAMESCREEN.OBJDEBUG\GAMESCREENLEVELONE.OBJDEBUG\GAMESCREENMANAGER.OBJDEBUG\GAMESCREENTITLE.OBJDEBUG\SOURCE.OBJDEBUG\TEXTURE2D.OBJ
^D:\TANVIR\DOCUMENTS\DNA_PROJECT\TETRIS\TETRIS\DEBUG\AUDIOMANAGER.OBJ|D:\TANVIR\DOCUMENTS\DNA_PROJECT\TETRIS\TETRIS\DEBUG\CHARACTER.OBJ|D:\TANVIR\DOCUMENTS\DNA_PROJECT\TETRIS\TETRIS\DEBUG\GAMESCREEN.OBJ|D:\TANVIR\DOCUMENTS\DNA_PROJECT\TETRIS\TETRIS\DEBUG\GAMESCREENLEVELONE.OBJ|D:\TANVIR\DOCUMENTS\DNA_PROJECT\TETRIS\TETRIS\DEBUG\GAMESCREENMANAGER.OBJ|D:\TANVIR\DOCUMENTS\DNA_PROJECT\TETRIS\TETRIS\DEBUG\GAMESCREENTITLE.OBJ|D:\TANVIR\DOCUMENTS\DNA_PROJECT\TETRIS\TETRIS\DEBUG\SOURCE.OBJ|D:\TANVIR\DOCUMENTS\DNA_PROJECT\TETRIS\TETRIS\DEBUG\TEXTURE2D.OBJ
/OUT:"D:\TANVIR\DOCUMENTS\DNA_PROJECT\TETRIS\DEBUG\TETRIS.EXE" /INCREMENTAL /NOLOGO /LIBPATH:SDL2.LIB /LIBPATH:SDL_MAIN.LIB /LIBPATH:SDL2_IMAGE.LIB SDL2.LIB SDL2MAIN.LIB SDL2_IMAGE.LIB SDL2_TTF.LIB SDL2_MIXER.LIB KERNEL32.LIB USER32.LIB GDI32.LIB WINSPOOL.LIB COMDLG32.LIB ADVAPI32.LIB SHELL32.LIB OLE32.LIB OLEAUT32.LIB UUID.LIB ODBC32.LIB ODBCCP32.LIB /MANIFEST /MANIFESTUAC:"level='asInvoker' uiAccess='false'" /manifest:embed /DEBUG:FASTLINK /PDB:"D:\TANVIR\DOCUMENTS\DNA_PROJECT\TETRIS\DEBUG\TETRIS.PDB" /SUBSYSTEM:CONSOLE /TLBID:1 /DYNAMICBASE /NXCOMPAT /IMPLIB:"D:\TANVIR\DOCUMENTS\DNA_PROJECT\TETRIS\DEBUG\TETRIS.LIB" /MACHINE:X86 DEBUG\CHARACTER.OBJDEBUG\GAMESCREEN.OBJDEBUG\GAMESCREENLEVELONE.OBJDEBUG\GAMESCREENMANAGER.OBJDEBUG\GAMESCREENTITLE.OBJDEBUG\AUDIOMANAGER.OBJDEBUG\SOURCE.OBJDEBUG\TEXTURE2D.OBJ
^C:\USERS\K015197I\DOWNLOADS\DNA_PROJECT\TETRIS\TETRIS\DEBUG\AUDIOMANAGER.OBJ|C:\USERS\K015197I\DOWNLOADS\DNA_PROJECT\TETRIS\TETRIS\DEBUG\CHARACTER.OBJ|C:\USERS\K015197I\DOWNLOADS\DNA_PROJECT\TETRIS\TETRIS\DEBUG\GAMESCREEN.OBJ|C:\USERS\K015197I\DOWNLOADS\DNA_PROJECT\TETRIS\TETRIS\DEBUG\GAMESCREENLEVELONE.OBJ|C:\USERS\K015197I\DOWNLOADS\DNA_PROJECT\TETRIS\TETRIS\DEBUG\GAMESCREENMANAGER.OBJ|C:\USERS\K015197I\DOWNLOADS\DNA_PROJECT\TETRIS\TETRIS\DEBUG\GAMESCREENTITLE.OBJ|C:\USERS\K015197I\DOWNLOADS\DNA_PROJECT\TETRIS\TETRIS\DEBUG\SOURCE.OBJ|C:\USERS\K015197I\DOWNLOADS\DNA_PROJECT\TETRIS\TETRIS\DEBUG\TEXTURE2D.OBJ
/OUT:"C:\USERS\K015197I\DOWNLOADS\DNA_PROJECT\TETRIS\DEBUG\TETRIS.EXE" /INCREMENTAL /NOLOGO /LIBPATH:SDL2.LIB /LIBPATH:SDL_MAIN.LIB /LIBPATH:SDL2_IMAGE.LIB SDL2.LIB SDL2MAIN.LIB SDL2_IMAGE.LIB SDL2_TTF.LIB SDL2_MIXER.LIB KERNEL32.LIB USER32.LIB GDI32.LIB WINSPOOL.LIB COMDLG32.LIB ADVAPI32.LIB SHELL32.LIB OLE32.LIB OLEAUT32.LIB UUID.LIB ODBC32.LIB ODBCCP32.LIB /MANIFEST /MANIFESTUAC:"level='asInvoker' uiAccess='false'" /manifest:embed /DEBUG:FASTLINK /PDB:"C:\USERS\K015197I\DOWNLOADS\DNA_PROJECT\TETRIS\DEBUG\TETRIS.PDB" /SUBSYSTEM:CONSOLE /TLBID:1 /DYNAMICBASE /NXCOMPAT /IMPLIB:"C:\USERS\K015197I\DOWNLOADS\DNA_PROJECT\TETRIS\DEBUG\TETRIS.LIB" /MACHINE:X86 DEBUG\CHARACTER.OBJDEBUG\GAMESCREEN.OBJDEBUG\GAMESCREENLEVELONE.OBJDEBUG\GAMESCREENMANAGER.OBJDEBUG\GAMESCREENTITLE.OBJDEBUG\AUDIOMANAGER.OBJDEBUG\SOURCE.OBJDEBUG\TEXTURE2D.OBJ
^C:\USERS\K015197I\DOCUMENTS\GROUP11TETRISCLONE\TETRIS\TETRIS\DEBUG\AUDIOMANAGER.OBJ|C:\USERS\K015197I\DOCUMENTS\GROUP11TETRISCLONE\TETRIS\TETRIS\DEBUG\CHARACTER.OBJ|C:\USERS\K015197I\DOCUMENTS\GROUP11TETRISCLONE\TETRIS\TETRIS\DEBUG\GAMESCREEN.OBJ|C:\USERS\K015197I\DOCUMENTS\GROUP11TETRISCLONE\TETRIS\TETRIS\DEBUG\GAMESCREENLEVELONE.OBJ|C:\USERS\K015197I\DOCUMENTS\GROUP11TETRISCLONE\TETRIS\TETRIS\DEBUG\GAMESCREENMANAGER.OBJ|C:\USERS\K015197I\DOCUMENTS\GROUP11TETRISCLONE\TETRIS\TETRIS\DEBUG\GAMESCREENTITLE.OBJ|C:\USERS\K015197I\DOCUMENTS\GROUP11TETRISCLONE\TETRIS\TETRIS\DEBUG\SOURCE.OBJ|C:\USERS\K015197I\DOCUMENTS\GROUP11TETRISCLONE\TETRIS\TETRIS\DEBUG\TEXTURE2D.OBJ
/OUT:"C:\USERS\K015197I\DOCUMENTS\GROUP11TETRISCLONE\TETRIS\DEBUG\TETRIS.EXE" /INCREMENTAL /NOLOGO /LIBPATH:SDL2.LIB /LIBPATH:SDL_MAIN.LIB /LIBPATH:SDL2_IMAGE.LIB SDL2.LIB SDL2MAIN.LIB SDL2_IMAGE.LIB SDL2_TTF.LIB SDL2_MIXER.LIB KERNEL32.LIB USER32.LIB GDI32.LIB WINSPOOL.LIB COMDLG32.LIB ADVAPI32.LIB SHELL32.LIB OLE32.LIB OLEAUT32.LIB UUID.LIB ODBC32.LIB ODBCCP32.LIB /MANIFEST /MANIFESTUAC:"level='asInvoker' uiAccess='false'" /manifest:embed /DEBUG:FASTLINK /PDB:"C:\USERS\K015197I\DOCUMENTS\GROUP11TETRISCLONE\TETRIS\DEBUG\TETRIS.PDB" /SUBSYSTEM:CONSOLE /TLBID:1 /DYNAMICBASE /NXCOMPAT /IMPLIB:"C:\USERS\K015197I\DOCUMENTS\GROUP11TETRISCLONE\TETRIS\DEBUG\TETRIS.LIB" /MACHINE:X86 DEBUG\CHARACTER.OBJDEBUG\GAMESCREEN.OBJDEBUG\GAMESCREENLEVELONE.OBJDEBUG\GAMESCREENMANAGER.OBJDEBUG\GAMESCREENTITLE.OBJDEBUG\AUDIOMANAGER.OBJDEBUG\SOURCE.OBJDEBUG\TEXTURE2D.OBJ
^D:\TANVIR\DOCUMENTS\DNAPROJ-TANVIRBRANCH\TETRIS\TETRIS\DEBUG\AUDIOMANAGER.OBJ|D:\TANVIR\DOCUMENTS\DNAPROJ-TANVIRBRANCH\TETRIS\TETRIS\DEBUG\CHARACTER.OBJ|D:\TANVIR\DOCUMENTS\DNAPROJ-TANVIRBRANCH\TETRIS\TETRIS\DEBUG\CHARACTERGRID.OBJ|D:\TANVIR\DOCUMENTS\DNAPROJ-TANVIRBRANCH\TETRIS\TETRIS\DEBUG\CHARACTERTETROMINO.OBJ|D:\TANVIR\DOCUMENTS\DNAPROJ-TANVIRBRANCH\TETRIS\TETRIS\DEBUG\CHARACTERTETROMINOOUTLINE.OBJ|D:\TANVIR\DOCUMENTS\DNAPROJ-TANVIRBRANCH\TETRIS\TETRIS\DEBUG\COLLISIONS.OBJ|D:\TANVIR\DOCUMENTS\DNAPROJ-TANVIRBRANCH\TETRIS\TETRIS\DEBUG\GAMESCREEN.OBJ|D:\TANVIR\DOCUMENTS\DNAPROJ-TANVIRBRANCH\TETRIS\TETRIS\DEBUG\GAMESCREENGAMEOVER.OBJ|D:\TANVIR\DOCUMENTS\DNAPROJ-TANVIRBRANCH\TETRIS\TETRIS\DEBUG\GAMESCREENLEVELONE.OBJ|D:\TANVIR\DOCUMENTS\DNAPROJ-TANVIRBRANCH\TETRIS\TETRIS\DEBUG\GAMESCREENMANAGER.OBJ|D:\TANVIR\DOCUMENTS\DNAPROJ-TANVIRBRANCH\TETRIS\TETRIS\DEBUG\GAMESCREENTITLE.OBJ|D:\TANVIR\DOCUMENTS\DNAPROJ-TANVIRBRANCH\TETRIS\TETRIS\DEBUG\SOURCE.OBJ|D:\TANVIR\DOCUMENTS\DNAPROJ-TANVIRBRANCH\TETRIS\TETRIS\DEBUG\TEXTURE2D.OBJ|D:\TANVIR\DOCUMENTS\DNAPROJ-TANVIRBRANCH\TETRIS\TETRIS\DEBUG\TILEMAP.OBJ
/OUT:"D:\TANVIR\DOCUMENTS\DNAPROJ-TANVIRBRANCH\TETRIS\DEBUG\TETRIS.EXE" /INCREMENTAL /NOLOGO /LIBPATH:SDL2.LIB /LIBPATH:SDL_MAIN.LIB /LIBPATH:SDL2_IMAGE.LIB SDL2.LIB SDL2MAIN.LIB SDL2_IMAGE.LIB SDL2_TTF.LIB SDL2_MIXER.LIB KERNEL32.LIB USER32.LIB GDI32.LIB WINSPOOL.LIB COMDLG32.LIB ADVAPI32.LIB SHELL32.LIB OLE32.LIB OLEAUT32.LIB UUID.LIB ODBC32.LIB ODBCCP32.LIB /MANIFEST /MANIFESTUAC:"level='asInvoker' uiAccess='false'" /manifest:embed /DEBUG:FASTLINK /PDB:"D:\TANVIR\DOCUMENTS\DNAPROJ-TANVIRBRANCH\TETRIS\DEBUG\TETRIS.PDB" /SUBSYSTEM:CONSOLE /TLBID:1 /DYNAMICBASE /NXCOMPAT /IMPLIB:"D:\TANVIR\DOCUMENTS\DNAPROJ-TANVIRBRANCH\TETRIS\DEBUG\TETRIS.LIB" /MACHINE:X86 DEBUG\CHARACTER.OBJDEBUG\CHARACTERGRID.OBJDEBUG\CHARACTERTETROMINO.OBJDEBUG\CHARACTERTETROMINOOUTLINE.OBJDEBUG\COLLISIONS.OBJDEBUG\GAMESCREEN.OBJDEBUG\GAMESCREENGAMEOVER.OBJDEBUG\GAMESCREENLEVELONE.OBJDEBUG\GAMESCREENMANAGER.OBJDEBUG\GAMESCREENTITLE.OBJDEBUG\AUDIOMANAGER.OBJDEBUG\SOURCE.OBJDEBUG\TEXTURE2D.OBJDEBUG\TILEMAP.OBJ
